ADF&G harvest data for Ruggerone & Irvine Alaska salmon bimoass update
…
And summarize by CF reporting regions to compare with current NPAFC catch statistics:

Show the code

df_CF <- df %>% group_by(Species,Region,Year) %>% summarise(N_fish = sum(N_fish),Whole_wt = sum(Whole_wt),Landed_wt = sum(Landed_wt)) %>% ungroup()

x=  data.frame(Species = "pink",Region = "AYK",Year= "2001", N_fish =NA, Whole_wt =NA, Landed_wt =NA)
x2=  data.frame(Species = "pink",Region = "AYK",Year= "2002", N_fish =NA, Whole_wt =NA, Landed_wt =NA)

df_CF <- rbind(df_CF,x,x2
              )

df_CF

# A tibble: 372 × 6
   Species Region Year   N_fish Whole_wt Landed_wt
   <chr>   <chr>  <chr>   <dbl>    <dbl>     <dbl>
 1 chum    AYK    1985  1665406    5684.     5684.
 2 chum    AYK    1986  1618508    5273.     5273.
 3 chum    AYK    1987  1255844    3966.     3966.
 4 chum    AYK    1988  3217051   10464.    10464.
 5 chum    AYK    1989  2354291    7699.     7699.
 6 chum    AYK    1990  1195153    3986.     3986.
 7 chum    AYK    1991  1415579    4412.     4412.
 8 chum    AYK    1992  1172649    3840.     3840.
 9 chum    AYK    1993   327207    1030.     1030.
10 chum    AYK    1994   637195    1941.     1941.
# ℹ 362 more rows
…
Table: Non-identical attributes

 ----------------------------
 No non-identical attributes 
 ----------------------------

Show the code

y <- unique(g2$diffs.table[,3])

df_CFb[y,]

# A tibble: 84 × 4
   Species Region     Year    N_fish
   <chr>   <chr>     <dbl>     <dbl>
 1 chum    AYK        2014  1428229 
 2 chum    Central    2007  5598176 
 3 chum    Central    2009  4704577 
 4 chum    Central    2013  5403349.
 5 chum    Central    2014  2190293 
 6 chum    Southeast  1994 10403083 
 7 chum    Southeast  1995 11225693 
 8 chum    Southeast  1996 15868209 
 9 chum    Southeast  1997 11789139 
10 chum    Southeast  1998 15695285 
# ℹ 74 more rows

Show the code

df_NPAFC[y,]

# A tibble: 84 × 4
   Species Region     Year   N_fish
   <chr>   <chr>     <dbl>    <dbl>
 1 chum    AYK        2014  1428191
 2 chum    Central    2007  5598183
 3 chum    Central    2009  4704572
 4 chum    Central    2013  5401583
 5 chum    Central    2014  2102664
 6 chum    Southeast  1994 10403080
 7 chum    Southeast  1995 11225690
 8 chum    Southeast  1996 15868210
 9 chum    Southeast  1997 11789140
10 chum    Southeast  1998 15695290
# ℹ 74 more rows
…
Table: Non-identical attributes

 ----------------------------
 No non-identical attributes 
 ----------------------------

Show the code

y <- unique(g2$diffs.table[,3])

df_CFb[y,]

# A tibble: 357 × 4
   Species Region  Year Wt_fish
   <chr>   <chr>  <dbl>   <dbl>
 1 chum    AYK     1985   5684.
 2 chum    AYK     1986   5273.
 3 chum    AYK     1987   3966.
 4 chum    AYK     1988  10464.
 5 chum    AYK     1989   7699.
 6 chum    AYK     1990   3986.
 7 chum    AYK     1991   4412.
 8 chum    AYK     1992   3840.
 9 chum    AYK     1993   1030.
10 chum    AYK     1994   1941.
# ℹ 347 more rows

Show the code

df_NPAFC[y,]

# A tibble: 357 × 4
   Species Region  Year Wt_fish
   <chr>   <chr>  <dbl>   <dbl>
 1 chum    AYK     1985   5684.
 2 chum    AYK     1986   5273.
 3 chum    AYK     1987   3966.
 4 chum    AYK     1988  10464.
 5 chum    AYK     1989   7699.
 6 chum    AYK     1990   3986.
 7 chum    AYK     1991   4412.
 8 chum    AYK     1992   3840.
 9 chum    AYK     1993   1030.
10 chum    AYK     1994   1941.
# ℹ 347 more rows
